{
	"version": 3,
	"$schema": "https://schemas.wp.org/wp/6.6/theme.json",
	"patterns": [],
	"templateParts": [],
	"customTemplates": [],
	"settings": {
		"appearanceTools": true,
		"layout": {
			"wideSize": "1200px",
			"contentSize": "960px"
		},
		"color": {
			"defaultDuotone": false,
			"customGradient": false,
    		"gradients": [],
    		"defaultGradients": false,
			"custom": false,
    		"defaultPalette": false,
			"palette": [
				{
					"color": "#ffffff",
					"name": "Contrast / White",
					"slug": "contrast-white"
				},
				{
					"color": "#f7f7f4",
					"name": "Contrast / Lightest Gray",
					"slug": "contrast-lts-gray"
				},
				{
					"color": "#e3e3e3",
					"name": "Contrast / Dark Gray",
					"slug": "contrast-dk-gray"
				},
				{
					"color": "#f6f6f3",
					"name": "Contrast / Light Gray",
					"slug": "contrast-lt-gray"
				},
				{
					"color": "#0e0d0d",
					"name": "Contrast / Black",
					"slug": "contrast-black"
				},
				{
					"color": "#0000FF",
					"name": "Primary / Blue",
					"slug": "primary-blue"
				},
				{
					"color": "#FF0000",
					"name": "Primary / Red",
					"slug": "primary-red"
				},
				{
					"color": "#FFFF00",
					"name": "Primary / Yellow",
					"slug": "primary-yellow"
				},
				{
					"color": "#FF6600",
					"name": "Secondary / Orange",
					"slug": "secondary-orange"
				},
				{
					"color": "#00FF00",
					"name": "Secondary / Green",
					"slug": "secondary-green"
				},
				{
					"color": "#6600FF",
					"name": "Secondary / Purple",
					"slug": "secondary-purple"
				}
			]
		},
		"spacing": {
			"defaultSpacingSizes": true,
			"units": [
				"%",
				"px",
				"em",
				"rem",
				"vh",
				"vw"
			]
		},
		"useRootPaddingAwareAlignments": true
	}
}